sleeper_getendpoint
…
This isn’t very helpful without knowing who these players are - let’s pull the players endpoint in as well.

players <- sleeper_players() %>% 
  select(player_id, player_name, pos, team, age)

trending <- df_trending %>% 
  left_join(players, by = "player_id")

trending
#> # A tibble: 25 x 6
#>    player_id  count player_name           pos   team    age
#>    <chr>      <int> <chr>                 <chr> <chr> <dbl>
#>  1 4994      157599 Kalen Ballage         RB    LAC    24.9
#>  2 5163       94475 Ryan Nall             RB    CHI    24.9
#>  3 1535       91276 Cordarrelle Patterson WR    CHI    29.7
#>  4 6012       75473 Travis Homer          RB    SEA    22.3
#>  5 6931       67759 DeeJay Dallas         RB    SEA    22.2
#>  6 4150       58560 Wayne Gallman         RB    NYG    26.1
#>  7 6918       49667 Salvon Ahmed          RB    MIA    21.9
#>  8 3934       40049 Troymaine Pope        RB    LAC    27  
#>  9 1048       39989 Lamar Miller          RB    CHI    29.6
#> 10 MIN        39109 <NA>                  DEF   MIN    NA  
#> # ... with 15 more rows
…
